<?xml version="1.0" encoding="UTF-8"?>
<robot rpa="false" generated="20190709 16:33:10.239" generator="Robot 3.1.1 (Python 2.7.16 on win32)">
<suite source="C:\Robot Framework\SPD\SPD01002_สอบถาม_ปรับปรุงการรับแจ้งขอรับสิทธิบำนาญชราภาพ.robot" id="s1" name="SPD01002 สอบถาม ปรับปรุงการรับแจ้งขอรับสิทธิบำนาญชราภาพ">
<kw type="setup" name="gotoProject&amp;SelectModule" library="spdConfiguration">
<arguments>
<arg>user</arg>
<arg>spd</arg>
</arguments>
<kw name="Set Selenium Speed" library="SeleniumLibrary">
<doc>Sets the delay that is waited after each Selenium command.</doc>
<arguments>
<arg>0.5</arg>
</arguments>
<status status="PASS" endtime="20190709 16:33:11.035" starttime="20190709 16:33:11.034"></status>
</kw>
<kw name="Open Browser" library="SeleniumLibrary">
<doc>Opens a new browser instance to the given ``url``.</doc>
<arguments>
<arg>${LoginPage}</arg>
<arg>gc</arg>
</arguments>
<msg timestamp="20190709 16:33:11.035" level="INFO">Opening browser 'gc' to base url 'http://192.168.2.16:9080/spd/index.jsp?app=indexadmin'.</msg>
<status status="PASS" endtime="20190709 16:33:14.036" starttime="20190709 16:33:11.035"></status>
</kw>
<kw name="Maximize Browser Window" library="SeleniumLibrary">
<doc>Maximizes current browser window.</doc>
<status status="PASS" endtime="20190709 16:33:15.693" starttime="20190709 16:33:14.037"></status>
</kw>
<kw name="Input Text" library="SeleniumLibrary">
<doc>Types the given ``text`` into text field identified by ``locator``.</doc>
<arguments>
<arg>name:userid</arg>
<arg>${user}</arg>
</arguments>
<msg timestamp="20190709 16:33:15.694" level="INFO">Typing text 'user' into text field 'name:userid'.</msg>
<status status="PASS" endtime="20190709 16:33:17.330" starttime="20190709 16:33:15.693"></status>
</kw>
<kw name="Press Keys" library="SeleniumLibrary">
<doc>Simulates user pressing key(s) to an element or on the active browser.</doc>
<arguments>
<arg>name:userid</arg>
<arg>RETURN</arg>
</arguments>
<msg timestamp="20190709 16:33:17.331" level="INFO">Sending key(s) (u'RETURN',) to name:userid element.</msg>
<msg timestamp="20190709 16:33:17.842" level="INFO">Pressing special key RETURN to element.</msg>
<status status="PASS" endtime="20190709 16:33:19.595" starttime="20190709 16:33:17.330"></status>
</kw>
<kw name="Click Button" library="SeleniumLibrary">
<doc>Clicks button identified by ``locator``.</doc>
<arguments>
<arg>ยอมรับ</arg>
</arguments>
<msg timestamp="20190709 16:33:19.595" level="INFO">Clicking button 'ยอมรับ'.</msg>
<status status="PASS" endtime="20190709 16:33:21.181" starttime="20190709 16:33:19.595"></status>
</kw>
<kw name="Wait Until Page Contains Element" library="SeleniumLibrary">
<doc>Waits until element ``locator`` appears on current page.</doc>
<arguments>
<arg>//button[@class="${module}-module"]</arg>
</arguments>
<status status="PASS" endtime="20190709 16:33:21.709" starttime="20190709 16:33:21.181"></status>
</kw>
<kw name="Click Element" library="SeleniumLibrary">
<doc>Click element identified by ``locator``.</doc>
<arguments>
<arg>//button[@class="${module}-module"]</arg>
</arguments>
<msg timestamp="20190709 16:33:21.709" level="INFO">Clicking element '//button[@class="spd-module"]'.</msg>
<status status="PASS" endtime="20190709 16:33:23.009" starttime="20190709 16:33:21.709"></status>
</kw>
<status status="PASS" endtime="20190709 16:33:23.009" starttime="20190709 16:33:11.034"></status>
</kw>
<test id="s1-t1" name="SPD01002A_Neg_BEN_Search SSO not Empty &amp; no Condition others_Warning">
<kw type="setup" name="Go To" library="SeleniumLibrary">
<doc>Navigates the active browser instance to the provided ``url``.</doc>
<arguments>
<arg>${SPD0102}</arg>
</arguments>
<msg timestamp="20190709 16:33:23.009" level="INFO">Opening url 'http://192.168.2.16:9080/spd/spd?app=SPD01002&amp;job=init'</msg>
<status status="PASS" endtime="20190709 16:33:23.647" starttime="20190709 16:33:23.009"></status>
</kw>
<kw name="Comment" library="BuiltIn">
<doc>Displays the given messages in the log file as keyword arguments.</doc>
<arguments>
<arg>ไม่ระบุ สปส. ที่รับผิดชอบในช่องกรอกข้อมูล</arg>
</arguments>
<status status="PASS" endtime="20190709 16:33:23.648" starttime="20190709 16:33:23.648"></status>
</kw>
<kw name="Input Condition for Search">
<arguments>
<arg>3100502626201</arg>
<arg>100248795510214</arg>
<arg>${EMPTY}</arg>
<arg>${EMPTY}</arg>
<arg>${EMPTY}</arg>
</arguments>
<kw name="Wait Until Page Contains Element" library="SeleniumLibrary">
<doc>Waits until element ``locator`` appears on current page.</doc>
<arguments>
<arg>id:citizenId</arg>
</arguments>
<status status="PASS" endtime="20190709 16:33:24.163" starttime="20190709 16:33:23.650"></status>
</kw>
<kw name="Input Text" library="SeleniumLibrary">
<doc>Types the given ``text`` into text field identified by ``locator``.</doc>
<arguments>
<arg>id:citizenId</arg>
<arg>${citizenId}</arg>
</arguments>
<msg timestamp="20190709 16:33:24.164" level="INFO">Typing text '3100502626201' into text field 'id:citizenId'.</msg>
<status status="PASS" endtime="20190709 16:33:25.886" starttime="20190709 16:33:24.163"></status>
</kw>
<kw name="Wait Until Page Contains Element" library="SeleniumLibrary">
<doc>Waits until element ``locator`` appears on current page.</doc>
<arguments>
<arg>id:pettitionNo</arg>
</arguments>
<status status="PASS" endtime="20190709 16:33:26.409" starttime="20190709 16:33:25.887"></status>
</kw>
<kw name="Input Text" library="SeleniumLibrary">
<doc>Types the given ``text`` into text field identified by ``locator``.</doc>
<arguments>
<arg>id:pettitionNo</arg>
<arg>${pettitionNo}</arg>
</arguments>
<msg timestamp="20190709 16:33:26.409" level="INFO">Typing text '100248795510214' into text field 'id:pettitionNo'.</msg>
<status status="PASS" endtime="20190709 16:33:28.071" starttime="20190709 16:33:26.409"></status>
</kw>
<kw name="Wait Until Page Contains Element" library="SeleniumLibrary">
<doc>Waits until element ``locator`` appears on current page.</doc>
<arguments>
<arg>id:pettitionStatus</arg>
</arguments>
<status status="PASS" endtime="20190709 16:33:28.603" starttime="20190709 16:33:28.071"></status>
</kw>
<kw name="Select From List By Value" library="SeleniumLibrary">
<doc>Selects options from selection list ``locator`` by ``values``.</doc>
<arguments>
<arg>id:pettitionStatus</arg>
<arg>${pettitionStatus}</arg>
</arguments>
<msg timestamp="20190709 16:33:28.604" level="INFO">Selecting options from selection list 'id:pettitionStatus' by value .</msg>
<status status="PASS" endtime="20190709 16:33:31.680" starttime="20190709 16:33:28.603"></status>
</kw>
<kw name="Wait Until Page Contains Element" library="SeleniumLibrary">
<doc>Waits until element ``locator`` appears on current page.</doc>
<arguments>
<arg>id:pettitionDate</arg>
</arguments>
<status status="PASS" endtime="20190709 16:33:32.207" starttime="20190709 16:33:31.680"></status>
</kw>
<kw name="Input Text" library="SeleniumLibrary">
<doc>Types the given ``text`` into text field identified by ``locator``.</doc>
<arguments>
<arg>id:pettitionDate</arg>
<arg>${pettitionDate}</arg>
</arguments>
<msg timestamp="20190709 16:33:32.207" level="INFO">Typing text '' into text field 'id:pettitionDate'.</msg>
<status status="PASS" endtime="20190709 16:33:33.770" starttime="20190709 16:33:32.207"></status>
</kw>
<kw name="Wait Until Page Contains Element" library="SeleniumLibrary">
<doc>Waits until element ``locator`` appears on current page.</doc>
<arguments>
<arg>id:ssoBranchCode</arg>
</arguments>
<status status="PASS" endtime="20190709 16:33:34.283" starttime="20190709 16:33:33.770"></status>
</kw>
<kw name="Select From List By Value" library="SeleniumLibrary">
<doc>Selects options from selection list ``locator`` by ``values``.</doc>
<arguments>
<arg>id:ssoBranchCode</arg>
<arg>${ssoBranchCode}</arg>
</arguments>
<msg timestamp="20190709 16:33:34.284" level="INFO">Selecting options from selection list 'id:ssoBranchCode' by value .</msg>
<status status="PASS" endtime="20190709 16:33:37.927" starttime="20190709 16:33:34.283"></status>
</kw>
<kw name="Click Element" library="SeleniumLibrary">
<doc>Click element identified by ``locator``.</doc>
<arguments>
<arg>id:search</arg>
</arguments>
<msg timestamp="20190709 16:33:37.927" level="INFO">Clicking element 'id:search'.</msg>
<status status="PASS" endtime="20190709 16:33:39.146" starttime="20190709 16:33:37.927"></status>
</kw>
<status status="PASS" endtime="20190709 16:33:39.146" starttime="20190709 16:33:23.649"></status>
</kw>
<kw name="Page Should Contain Element" library="SeleniumLibrary">
<doc>Verifies that element ``locator`` is found on the current page.</doc>
<arguments>
<arg>//*[@id="ssoBranchCode"]/option[1]</arg>
</arguments>
<msg timestamp="20190709 16:33:39.665" level="INFO">Current page contains element '//*[@id="ssoBranchCode"]/option[1]'.</msg>
<status status="PASS" endtime="20190709 16:33:39.665" starttime="20190709 16:33:39.147"></status>
</kw>
<kw name="Element Text Should Be" library="SeleniumLibrary">
<doc>Verifies that element ``locator`` contains exact text ``expected``.</doc>
<arguments>
<arg>//*[@id="msg"]/div/p/text()</arg>
</arguments>
<msg timestamp="20190709 16:33:39.666" level="FAIL">Keyword 'SeleniumLibrary.Element Text Should Be' expected 2 to 4 arguments, got 1.</msg>
<status status="FAIL" endtime="20190709 16:33:39.666" starttime="20190709 16:33:39.665"></status>
</kw>
<tags>
<tag>Valva5</tag>
</tags>
<status status="FAIL" endtime="20190709 16:33:39.666" critical="yes" starttime="20190709 16:33:23.009">Keyword 'SeleniumLibrary.Element Text Should Be' expected 2 to 4 arguments, got 1.</status>
</test>
<status status="FAIL" endtime="20190709 16:33:39.672" starttime="20190709 16:33:10.241"></status>
</suite>
<statistics>
<total>
<stat fail="1" pass="0">Critical Tests</stat>
<stat fail="1" pass="0">All Tests</stat>
</total>
<tag>
<stat fail="1" pass="0">Valva5</stat>
</tag>
<suite>
<stat fail="1" id="s1" name="SPD01002 สอบถาม ปรับปรุงการรับแจ้งขอรับสิทธิบำนาญชราภาพ" pass="0">SPD01002 สอบถาม ปรับปรุงการรับแจ้งขอรับสิทธิบำนาญชราภาพ</stat>
</suite>
</statistics>
<errors>
</errors>
</robot>
