<?xml version="1.0" encoding="UTF-8"?>
<robot rpa="false" generated="20190709 16:37:35.840" generator="Robot 3.1.1 (Python 2.7.16 on win32)">
<suite source="C:\Robot Framework\SPD\SPD01002_สอบถาม_ปรับปรุงการรับแจ้งขอรับสิทธิบำนาญชราภาพ.robot" id="s1" name="SPD01002 สอบถาม ปรับปรุงการรับแจ้งขอรับสิทธิบำนาญชราภาพ">
<kw type="setup" name="gotoProject&amp;SelectModule" library="spdConfiguration">
<arguments>
<arg>user</arg>
<arg>spd</arg>
</arguments>
<kw name="Set Selenium Speed" library="SeleniumLibrary">
<doc>Sets the delay that is waited after each Selenium command.</doc>
<arguments>
<arg>0.5</arg>
</arguments>
<status status="PASS" endtime="20190709 16:37:36.245" starttime="20190709 16:37:36.245"></status>
</kw>
<kw name="Open Browser" library="SeleniumLibrary">
<doc>Opens a new browser instance to the given ``url``.</doc>
<arguments>
<arg>${LoginPage}</arg>
<arg>gc</arg>
</arguments>
<msg timestamp="20190709 16:37:36.246" level="INFO">Opening browser 'gc' to base url 'http://192.168.2.16:9080/spd/index.jsp?app=indexadmin'.</msg>
<status status="PASS" endtime="20190709 16:37:39.138" starttime="20190709 16:37:36.246"></status>
</kw>
<kw name="Maximize Browser Window" library="SeleniumLibrary">
<doc>Maximizes current browser window.</doc>
<status status="PASS" endtime="20190709 16:37:40.761" starttime="20190709 16:37:39.138"></status>
</kw>
<kw name="Input Text" library="SeleniumLibrary">
<doc>Types the given ``text`` into text field identified by ``locator``.</doc>
<arguments>
<arg>name:userid</arg>
<arg>${user}</arg>
</arguments>
<msg timestamp="20190709 16:37:40.761" level="INFO">Typing text 'user' into text field 'name:userid'.</msg>
<status status="PASS" endtime="20190709 16:37:42.384" starttime="20190709 16:37:40.761"></status>
</kw>
<kw name="Press Keys" library="SeleniumLibrary">
<doc>Simulates user pressing key(s) to an element or on the active browser.</doc>
<arguments>
<arg>name:userid</arg>
<arg>RETURN</arg>
</arguments>
<msg timestamp="20190709 16:37:42.386" level="INFO">Sending key(s) (u'RETURN',) to name:userid element.</msg>
<msg timestamp="20190709 16:37:42.912" level="INFO">Pressing special key RETURN to element.</msg>
<status status="PASS" endtime="20190709 16:37:44.617" starttime="20190709 16:37:42.384"></status>
</kw>
<kw name="Click Button" library="SeleniumLibrary">
<doc>Clicks button identified by ``locator``.</doc>
<arguments>
<arg>ยอมรับ</arg>
</arguments>
<msg timestamp="20190709 16:37:44.619" level="INFO">Clicking button 'ยอมรับ'.</msg>
<status status="PASS" endtime="20190709 16:37:46.215" starttime="20190709 16:37:44.618"></status>
</kw>
<kw name="Wait Until Page Contains Element" library="SeleniumLibrary">
<doc>Waits until element ``locator`` appears on current page.</doc>
<arguments>
<arg>//button[@class="${module}-module"]</arg>
</arguments>
<status status="PASS" endtime="20190709 16:37:46.729" starttime="20190709 16:37:46.215"></status>
</kw>
<kw name="Click Element" library="SeleniumLibrary">
<doc>Click element identified by ``locator``.</doc>
<arguments>
<arg>//button[@class="${module}-module"]</arg>
</arguments>
<msg timestamp="20190709 16:37:46.730" level="INFO">Clicking element '//button[@class="spd-module"]'.</msg>
<status status="PASS" endtime="20190709 16:37:48.033" starttime="20190709 16:37:46.730"></status>
</kw>
<status status="PASS" endtime="20190709 16:37:48.033" starttime="20190709 16:37:36.244"></status>
</kw>
<test id="s1-t1" name="SPD01002A_Neg_BEN_Search SSO not Empty &amp; no Condition others_Warning">
<kw type="setup" name="Go To" library="SeleniumLibrary">
<doc>Navigates the active browser instance to the provided ``url``.</doc>
<arguments>
<arg>${SPD0102}</arg>
</arguments>
<msg timestamp="20190709 16:37:48.036" level="INFO">Opening url 'http://192.168.2.16:9080/spd/spd?app=SPD01002&amp;job=init'</msg>
<status status="PASS" endtime="20190709 16:37:48.666" starttime="20190709 16:37:48.035"></status>
</kw>
<kw name="Comment" library="BuiltIn">
<doc>Displays the given messages in the log file as keyword arguments.</doc>
<arguments>
<arg>ไม่ระบุ สปส. ที่รับผิดชอบในช่องกรอกข้อมูล</arg>
</arguments>
<status status="PASS" endtime="20190709 16:37:48.668" starttime="20190709 16:37:48.667"></status>
</kw>
<kw name="Input Condition for Search">
<arguments>
<arg>3100502626201</arg>
<arg>100248795510214</arg>
<arg>${EMPTY}</arg>
<arg>${EMPTY}</arg>
<arg>${EMPTY}</arg>
</arguments>
<kw name="Wait Until Page Contains Element" library="SeleniumLibrary">
<doc>Waits until element ``locator`` appears on current page.</doc>
<arguments>
<arg>id:citizenId</arg>
</arguments>
<status status="PASS" endtime="20190709 16:37:49.191" starttime="20190709 16:37:48.671"></status>
</kw>
<kw name="Input Text" library="SeleniumLibrary">
<doc>Types the given ``text`` into text field identified by ``locator``.</doc>
<arguments>
<arg>id:citizenId</arg>
<arg>${citizenId}</arg>
</arguments>
<msg timestamp="20190709 16:37:49.191" level="INFO">Typing text '3100502626201' into text field 'id:citizenId'.</msg>
<status status="PASS" endtime="20190709 16:37:50.843" starttime="20190709 16:37:49.191"></status>
</kw>
<kw name="Wait Until Page Contains Element" library="SeleniumLibrary">
<doc>Waits until element ``locator`` appears on current page.</doc>
<arguments>
<arg>id:pettitionNo</arg>
</arguments>
<status status="PASS" endtime="20190709 16:37:51.356" starttime="20190709 16:37:50.843"></status>
</kw>
<kw name="Input Text" library="SeleniumLibrary">
<doc>Types the given ``text`` into text field identified by ``locator``.</doc>
<arguments>
<arg>id:pettitionNo</arg>
<arg>${pettitionNo}</arg>
</arguments>
<msg timestamp="20190709 16:37:51.357" level="INFO">Typing text '100248795510214' into text field 'id:pettitionNo'.</msg>
<status status="PASS" endtime="20190709 16:37:53.064" starttime="20190709 16:37:51.356"></status>
</kw>
<kw name="Wait Until Page Contains Element" library="SeleniumLibrary">
<doc>Waits until element ``locator`` appears on current page.</doc>
<arguments>
<arg>id:pettitionStatus</arg>
</arguments>
<status status="PASS" endtime="20190709 16:37:53.598" starttime="20190709 16:37:53.064"></status>
</kw>
<kw name="Select From List By Value" library="SeleniumLibrary">
<doc>Selects options from selection list ``locator`` by ``values``.</doc>
<arguments>
<arg>id:pettitionStatus</arg>
<arg>${pettitionStatus}</arg>
</arguments>
<msg timestamp="20190709 16:37:53.600" level="INFO">Selecting options from selection list 'id:pettitionStatus' by value .</msg>
<status status="PASS" endtime="20190709 16:37:56.717" starttime="20190709 16:37:53.598"></status>
</kw>
<kw name="Wait Until Page Contains Element" library="SeleniumLibrary">
<doc>Waits until element ``locator`` appears on current page.</doc>
<arguments>
<arg>id:pettitionDate</arg>
</arguments>
<status status="PASS" endtime="20190709 16:37:57.255" starttime="20190709 16:37:56.718"></status>
</kw>
<kw name="Input Text" library="SeleniumLibrary">
<doc>Types the given ``text`` into text field identified by ``locator``.</doc>
<arguments>
<arg>id:pettitionDate</arg>
<arg>${pettitionDate}</arg>
</arguments>
<msg timestamp="20190709 16:37:57.257" level="INFO">Typing text '' into text field 'id:pettitionDate'.</msg>
<status status="PASS" endtime="20190709 16:37:58.894" starttime="20190709 16:37:57.256"></status>
</kw>
<kw name="Wait Until Page Contains Element" library="SeleniumLibrary">
<doc>Waits until element ``locator`` appears on current page.</doc>
<arguments>
<arg>id:ssoBranchCode</arg>
</arguments>
<status status="PASS" endtime="20190709 16:37:59.427" starttime="20190709 16:37:58.895"></status>
</kw>
<kw name="Select From List By Value" library="SeleniumLibrary">
<doc>Selects options from selection list ``locator`` by ``values``.</doc>
<arguments>
<arg>id:ssoBranchCode</arg>
<arg>${ssoBranchCode}</arg>
</arguments>
<msg timestamp="20190709 16:37:59.429" level="INFO">Selecting options from selection list 'id:ssoBranchCode' by value .</msg>
<status status="PASS" endtime="20190709 16:38:03.103" starttime="20190709 16:37:59.428"></status>
</kw>
<kw name="Click Element" library="SeleniumLibrary">
<doc>Click element identified by ``locator``.</doc>
<arguments>
<arg>id:search</arg>
</arguments>
<msg timestamp="20190709 16:38:03.105" level="INFO">Clicking element 'id:search'.</msg>
<status status="PASS" endtime="20190709 16:38:04.353" starttime="20190709 16:38:03.104"></status>
</kw>
<status status="PASS" endtime="20190709 16:38:04.353" starttime="20190709 16:37:48.669"></status>
</kw>
<kw name="Page Should Contain Element" library="SeleniumLibrary">
<doc>Verifies that element ``locator`` is found on the current page.</doc>
<arguments>
<arg>//*[@id="ssoBranchCode"]/option[1]</arg>
</arguments>
<msg timestamp="20190709 16:38:04.884" level="INFO">Current page contains element '//*[@id="ssoBranchCode"]/option[1]'.</msg>
<status status="PASS" endtime="20190709 16:38:04.884" starttime="20190709 16:38:04.354"></status>
</kw>
<kw name="Element Text Should Be" library="SeleniumLibrary">
<doc>Verifies that element ``locator`` contains exact text ``expected``.</doc>
<arguments>
<arg>//*[@id="msg"]/div/p</arg>
<arg>ไม่พบข้อมูลที่ต้องการค้นหา กรุณาตรวจสอบเงื่อนไขที่ระบุ</arg>
</arguments>
<msg timestamp="20190709 16:38:04.887" level="INFO">Verifying element '//*[@id="msg"]/div/p' contains exact text 'ไม่พบข้อมูลที่ต้องการค้นหา กรุณาตรวจสอบเงื่อนไขที่ระบุ'.</msg>
<status status="PASS" endtime="20190709 16:38:05.943" starttime="20190709 16:38:04.886"></status>
</kw>
<tags>
<tag>Valva5</tag>
</tags>
<status status="PASS" endtime="20190709 16:38:05.944" critical="yes" starttime="20190709 16:37:48.033"></status>
</test>
<status status="PASS" endtime="20190709 16:38:05.950" starttime="20190709 16:37:35.843"></status>
</suite>
<statistics>
<total>
<stat fail="0" pass="1">Critical Tests</stat>
<stat fail="0" pass="1">All Tests</stat>
</total>
<tag>
<stat fail="0" pass="1">Valva5</stat>
</tag>
<suite>
<stat fail="0" id="s1" name="SPD01002 สอบถาม ปรับปรุงการรับแจ้งขอรับสิทธิบำนาญชราภาพ" pass="1">SPD01002 สอบถาม ปรับปรุงการรับแจ้งขอรับสิทธิบำนาญชราภาพ</stat>
</suite>
</statistics>
<errors>
</errors>
</robot>
