<?xml version="1.0" encoding="UTF-8"?>
<robot rpa="false" generated="20190709 17:05:44.747" generator="Robot 3.1.1 (Python 2.7.16 on win32)">
<suite source="C:\Robot Framework\SPD\SPD01002_สอบถาม_ปรับปรุงการรับแจ้งขอรับสิทธิบำนาญชราภาพ.robot" id="s1" name="SPD01002 สอบถาม ปรับปรุงการรับแจ้งขอรับสิทธิบำนาญชราภาพ">
<kw type="setup" name="gotoProject&amp;SelectModule" library="spdConfiguration">
<arguments>
<arg>user</arg>
<arg>spd</arg>
</arguments>
<kw name="Set Selenium Speed" library="SeleniumLibrary">
<doc>Sets the delay that is waited after each Selenium command.</doc>
<arguments>
<arg>0.5</arg>
</arguments>
<status status="PASS" endtime="20190709 17:05:45.173" starttime="20190709 17:05:45.173"></status>
</kw>
<kw name="Open Browser" library="SeleniumLibrary">
<doc>Opens a new browser instance to the given ``url``.</doc>
<arguments>
<arg>${LoginPage}</arg>
<arg>gc</arg>
</arguments>
<msg timestamp="20190709 17:05:45.173" level="INFO">Opening browser 'gc' to base url 'http://192.168.2.16:9080/spd/index.jsp?app=indexadmin'.</msg>
<status status="PASS" endtime="20190709 17:05:48.128" starttime="20190709 17:05:45.173"></status>
</kw>
<kw name="Maximize Browser Window" library="SeleniumLibrary">
<doc>Maximizes current browser window.</doc>
<status status="PASS" endtime="20190709 17:05:49.747" starttime="20190709 17:05:48.128"></status>
</kw>
<kw name="Input Text" library="SeleniumLibrary">
<doc>Types the given ``text`` into text field identified by ``locator``.</doc>
<arguments>
<arg>name:userid</arg>
<arg>${user}</arg>
</arguments>
<msg timestamp="20190709 17:05:49.747" level="INFO">Typing text 'user' into text field 'name:userid'.</msg>
<status status="PASS" endtime="20190709 17:05:51.363" starttime="20190709 17:05:49.747"></status>
</kw>
<kw name="Press Keys" library="SeleniumLibrary">
<doc>Simulates user pressing key(s) to an element or on the active browser.</doc>
<arguments>
<arg>name:userid</arg>
<arg>RETURN</arg>
</arguments>
<msg timestamp="20190709 17:05:51.364" level="INFO">Sending key(s) (u'RETURN',) to name:userid element.</msg>
<msg timestamp="20190709 17:05:51.873" level="INFO">Pressing special key RETURN to element.</msg>
<status status="PASS" endtime="20190709 17:05:53.590" starttime="20190709 17:05:51.363"></status>
</kw>
<kw name="Click Button" library="SeleniumLibrary">
<doc>Clicks button identified by ``locator``.</doc>
<arguments>
<arg>ยอมรับ</arg>
</arguments>
<msg timestamp="20190709 17:05:53.590" level="INFO">Clicking button 'ยอมรับ'.</msg>
<status status="PASS" endtime="20190709 17:05:55.192" starttime="20190709 17:05:53.590"></status>
</kw>
<kw name="Wait Until Page Contains Element" library="SeleniumLibrary">
<doc>Waits until element ``locator`` appears on current page.</doc>
<arguments>
<arg>//button[@class="${module}-module"]</arg>
</arguments>
<status status="PASS" endtime="20190709 17:05:55.718" starttime="20190709 17:05:55.192"></status>
</kw>
<kw name="Click Element" library="SeleniumLibrary">
<doc>Click element identified by ``locator``.</doc>
<arguments>
<arg>//button[@class="${module}-module"]</arg>
</arguments>
<msg timestamp="20190709 17:05:55.719" level="INFO">Clicking element '//button[@class="spd-module"]'.</msg>
<status status="PASS" endtime="20190709 17:05:57.079" starttime="20190709 17:05:55.718"></status>
</kw>
<status status="PASS" endtime="20190709 17:05:57.080" starttime="20190709 17:05:45.172"></status>
</kw>
<test id="s1-t1" name="SPD01002A_Nor_BEN_Search SSO Success">
<kw type="setup" name="Go To" library="SeleniumLibrary">
<doc>Navigates the active browser instance to the provided ``url``.</doc>
<arguments>
<arg>${SPD0102}</arg>
</arguments>
<msg timestamp="20190709 17:05:57.085" level="INFO">Opening url 'http://192.168.2.16:9080/spd/spd?app=SPD01002&amp;job=init'</msg>
<status status="PASS" endtime="20190709 17:05:57.770" starttime="20190709 17:05:57.084"></status>
</kw>
<kw name="Comment" library="BuiltIn">
<doc>Displays the given messages in the log file as keyword arguments.</doc>
<arguments>
<arg>ระบุ สปส. ที่รับผิดชอบในช่องกรอกข้อมูล</arg>
</arguments>
<status status="PASS" endtime="20190709 17:05:57.772" starttime="20190709 17:05:57.771"></status>
</kw>
<kw name="Input Condition for Search">
<arguments>
<arg>3100502626201</arg>
<arg>100248795510214</arg>
<arg>${EMPTY}</arg>
<arg>${EMPTY}</arg>
<arg>${ssoBranchCode}</arg>
</arguments>
<msg timestamp="20190709 17:05:57.778" level="FAIL">Variable '${ssoBranchCode}' not found.</msg>
<status status="FAIL" endtime="20190709 17:05:57.778" starttime="20190709 17:05:57.773"></status>
</kw>
<tags>
<tag>Valva8</tag>
</tags>
<status status="FAIL" endtime="20190709 17:05:57.780" critical="yes" starttime="20190709 17:05:57.080">Variable '${ssoBranchCode}' not found.</status>
</test>
<status status="FAIL" endtime="20190709 17:05:57.787" starttime="20190709 17:05:44.750"></status>
</suite>
<statistics>
<total>
<stat fail="1" pass="0">Critical Tests</stat>
<stat fail="1" pass="0">All Tests</stat>
</total>
<tag>
<stat fail="1" pass="0">Valva8</stat>
</tag>
<suite>
<stat fail="1" id="s1" name="SPD01002 สอบถาม ปรับปรุงการรับแจ้งขอรับสิทธิบำนาญชราภาพ" pass="0">SPD01002 สอบถาม ปรับปรุงการรับแจ้งขอรับสิทธิบำนาญชราภาพ</stat>
</suite>
</statistics>
<errors>
</errors>
</robot>
