<?xml version="1.0" encoding="UTF-8"?>
<robot rpa="false" generated="20190709 17:34:17.732" generator="Robot 3.1.1 (Python 2.7.16 on win32)">
<suite source="C:\Robot Framework\SPD\SPD01002_สอบถาม_ปรับปรุงการรับแจ้งขอรับสิทธิบำนาญชราภาพ.robot" id="s1" name="SPD01002 สอบถาม ปรับปรุงการรับแจ้งขอรับสิทธิบำนาญชราภาพ">
<kw type="setup" name="gotoProject&amp;SelectModule" library="spdConfiguration">
<arguments>
<arg>user</arg>
<arg>spd</arg>
</arguments>
<kw name="Set Selenium Speed" library="SeleniumLibrary">
<doc>Sets the delay that is waited after each Selenium command.</doc>
<arguments>
<arg>0.5</arg>
</arguments>
<status status="PASS" endtime="20190709 17:34:18.132" starttime="20190709 17:34:18.132"></status>
</kw>
<kw name="Open Browser" library="SeleniumLibrary">
<doc>Opens a new browser instance to the given ``url``.</doc>
<arguments>
<arg>${LoginPage}</arg>
<arg>gc</arg>
</arguments>
<msg timestamp="20190709 17:34:18.133" level="INFO">Opening browser 'gc' to base url 'http://192.168.2.16:9080/spd/index.jsp?app=indexadmin'.</msg>
<status status="PASS" endtime="20190709 17:34:21.215" starttime="20190709 17:34:18.132"></status>
</kw>
<kw name="Maximize Browser Window" library="SeleniumLibrary">
<doc>Maximizes current browser window.</doc>
<status status="PASS" endtime="20190709 17:34:22.837" starttime="20190709 17:34:21.215"></status>
</kw>
<kw name="Input Text" library="SeleniumLibrary">
<doc>Types the given ``text`` into text field identified by ``locator``.</doc>
<arguments>
<arg>name:userid</arg>
<arg>${user}</arg>
</arguments>
<msg timestamp="20190709 17:34:22.838" level="INFO">Typing text 'user' into text field 'name:userid'.</msg>
<status status="PASS" endtime="20190709 17:34:24.428" starttime="20190709 17:34:22.837"></status>
</kw>
<kw name="Press Keys" library="SeleniumLibrary">
<doc>Simulates user pressing key(s) to an element or on the active browser.</doc>
<arguments>
<arg>name:userid</arg>
<arg>RETURN</arg>
</arguments>
<msg timestamp="20190709 17:34:24.429" level="INFO">Sending key(s) (u'RETURN',) to name:userid element.</msg>
<msg timestamp="20190709 17:34:24.941" level="INFO">Pressing special key RETURN to element.</msg>
<status status="PASS" endtime="20190709 17:34:26.654" starttime="20190709 17:34:24.428"></status>
</kw>
<kw name="Click Button" library="SeleniumLibrary">
<doc>Clicks button identified by ``locator``.</doc>
<arguments>
<arg>ยอมรับ</arg>
</arguments>
<msg timestamp="20190709 17:34:26.655" level="INFO">Clicking button 'ยอมรับ'.</msg>
<status status="PASS" endtime="20190709 17:34:28.313" starttime="20190709 17:34:26.654"></status>
</kw>
<kw name="Wait Until Page Contains Element" library="SeleniumLibrary">
<doc>Waits until element ``locator`` appears on current page.</doc>
<arguments>
<arg>//button[@class="${module}-module"]</arg>
</arguments>
<status status="PASS" endtime="20190709 17:34:28.845" starttime="20190709 17:34:28.313"></status>
</kw>
<kw name="Click Element" library="SeleniumLibrary">
<doc>Click element identified by ``locator``.</doc>
<arguments>
<arg>//button[@class="${module}-module"]</arg>
</arguments>
<msg timestamp="20190709 17:34:28.846" level="INFO">Clicking element '//button[@class="spd-module"]'.</msg>
<status status="PASS" endtime="20190709 17:34:30.139" starttime="20190709 17:34:28.845"></status>
</kw>
<status status="PASS" endtime="20190709 17:34:30.139" starttime="20190709 17:34:18.132"></status>
</kw>
<test id="s1-t1" name="SPD01002A_Nor_BEN_Search SSO Success">
<kw type="setup" name="Go To" library="SeleniumLibrary">
<doc>Navigates the active browser instance to the provided ``url``.</doc>
<arguments>
<arg>${SPD0102}</arg>
</arguments>
<msg timestamp="20190709 17:34:30.141" level="INFO">Opening url 'http://192.168.2.16:9080/spd/spd?app=SPD01002&amp;job=init'</msg>
<status status="PASS" endtime="20190709 17:34:30.791" starttime="20190709 17:34:30.141"></status>
</kw>
<kw name="Comment" library="BuiltIn">
<doc>Displays the given messages in the log file as keyword arguments.</doc>
<arguments>
<arg>ระบุ สปส. ที่รับผิดชอบในช่องกรอกข้อมูล</arg>
</arguments>
<status status="PASS" endtime="20190709 17:34:30.793" starttime="20190709 17:34:30.792"></status>
</kw>
<kw name="Input Condition for Search">
<arguments>
<arg>3100502626201</arg>
<arg>100248795510214</arg>
<arg>${EMPTY}</arg>
<arg>${EMPTY}</arg>
<arg>1002</arg>
</arguments>
<kw name="Wait Until Page Contains Element" library="SeleniumLibrary">
<doc>Waits until element ``locator`` appears on current page.</doc>
<arguments>
<arg>id:citizenId</arg>
</arguments>
<status status="PASS" endtime="20190709 17:34:31.331" starttime="20190709 17:34:30.795"></status>
</kw>
<kw name="Input Text" library="SeleniumLibrary">
<doc>Types the given ``text`` into text field identified by ``locator``.</doc>
<arguments>
<arg>id:citizenId</arg>
<arg>${citizenId}</arg>
</arguments>
<msg timestamp="20190709 17:34:31.331" level="INFO">Typing text '3100502626201' into text field 'id:citizenId'.</msg>
<status status="PASS" endtime="20190709 17:34:33.023" starttime="20190709 17:34:31.331"></status>
</kw>
<kw name="Wait Until Page Contains Element" library="SeleniumLibrary">
<doc>Waits until element ``locator`` appears on current page.</doc>
<arguments>
<arg>id:pettitionNo</arg>
</arguments>
<status status="PASS" endtime="20190709 17:34:33.541" starttime="20190709 17:34:33.024"></status>
</kw>
<kw name="Input Text" library="SeleniumLibrary">
<doc>Types the given ``text`` into text field identified by ``locator``.</doc>
<arguments>
<arg>id:pettitionNo</arg>
<arg>${pettitionNo}</arg>
</arguments>
<msg timestamp="20190709 17:34:33.542" level="INFO">Typing text '100248795510214' into text field 'id:pettitionNo'.</msg>
<status status="PASS" endtime="20190709 17:34:35.217" starttime="20190709 17:34:33.541"></status>
</kw>
<kw name="Wait Until Page Contains Element" library="SeleniumLibrary">
<doc>Waits until element ``locator`` appears on current page.</doc>
<arguments>
<arg>id:pettitionStatus</arg>
</arguments>
<status status="PASS" endtime="20190709 17:34:35.747" starttime="20190709 17:34:35.217"></status>
</kw>
<kw name="Select From List By Value" library="SeleniumLibrary">
<doc>Selects options from selection list ``locator`` by ``values``.</doc>
<arguments>
<arg>id:pettitionStatus</arg>
<arg>${pettitionStatus}</arg>
</arguments>
<msg timestamp="20190709 17:34:35.748" level="INFO">Selecting options from selection list 'id:pettitionStatus' by value .</msg>
<status status="PASS" endtime="20190709 17:34:38.871" starttime="20190709 17:34:35.747"></status>
</kw>
<kw name="Wait Until Page Contains Element" library="SeleniumLibrary">
<doc>Waits until element ``locator`` appears on current page.</doc>
<arguments>
<arg>id:pettitionDate</arg>
</arguments>
<status status="PASS" endtime="20190709 17:34:39.388" starttime="20190709 17:34:38.872"></status>
</kw>
<kw name="Input Text" library="SeleniumLibrary">
<doc>Types the given ``text`` into text field identified by ``locator``.</doc>
<arguments>
<arg>id:pettitionDate</arg>
<arg>${pettitionDate}</arg>
</arguments>
<msg timestamp="20190709 17:34:39.390" level="INFO">Typing text '' into text field 'id:pettitionDate'.</msg>
<status status="PASS" endtime="20190709 17:34:41.012" starttime="20190709 17:34:39.389"></status>
</kw>
<kw name="Wait Until Page Contains Element" library="SeleniumLibrary">
<doc>Waits until element ``locator`` appears on current page.</doc>
<arguments>
<arg>id:ssoBranchCode</arg>
</arguments>
<status status="PASS" endtime="20190709 17:34:41.546" starttime="20190709 17:34:41.013"></status>
</kw>
<kw name="Select From List By Value" library="SeleniumLibrary">
<doc>Selects options from selection list ``locator`` by ``values``.</doc>
<arguments>
<arg>id:ssoBranchCode</arg>
<arg>${ssoBranchCode}</arg>
</arguments>
<msg timestamp="20190709 17:34:41.547" level="INFO">Selecting options from selection list 'id:ssoBranchCode' by value 1002.</msg>
<status status="PASS" endtime="20190709 17:34:45.206" starttime="20190709 17:34:41.546"></status>
</kw>
<kw name="Click Element" library="SeleniumLibrary">
<doc>Click element identified by ``locator``.</doc>
<arguments>
<arg>id:search</arg>
</arguments>
<msg timestamp="20190709 17:34:45.207" level="INFO">Clicking element 'id:search'.</msg>
<status status="PASS" endtime="20190709 17:34:46.465" starttime="20190709 17:34:45.207"></status>
</kw>
<status status="PASS" endtime="20190709 17:34:46.465" starttime="20190709 17:34:30.794"></status>
</kw>
<tags>
<tag>Valva8</tag>
</tags>
<status status="PASS" endtime="20190709 17:34:46.467" critical="yes" starttime="20190709 17:34:30.139"></status>
</test>
<status status="PASS" endtime="20190709 17:34:46.475" starttime="20190709 17:34:17.735"></status>
</suite>
<statistics>
<total>
<stat fail="0" pass="1">Critical Tests</stat>
<stat fail="0" pass="1">All Tests</stat>
</total>
<tag>
<stat fail="0" pass="1">Valva8</stat>
</tag>
<suite>
<stat fail="0" id="s1" name="SPD01002 สอบถาม ปรับปรุงการรับแจ้งขอรับสิทธิบำนาญชราภาพ" pass="1">SPD01002 สอบถาม ปรับปรุงการรับแจ้งขอรับสิทธิบำนาญชราภาพ</stat>
</suite>
</statistics>
<errors>
</errors>
</robot>
