<?xml version="1.0" encoding="UTF-8"?>
<robot rpa="false" generated="20190709 15:46:45.774" generator="Robot 3.1.1 (Python 2.7.16 on win32)">
<suite source="C:\Robot Framework\SPD\SPD01002_สอบถาม_ปรับปรุงการรับแจ้งขอรับสิทธิบำนาญชราภาพ.robot" id="s1" name="SPD01002 สอบถาม ปรับปรุงการรับแจ้งขอรับสิทธิบำนาญชราภาพ">
<kw type="setup" name="gotoProject&amp;SelectModule" library="spdConfiguration">
<arguments>
<arg>user</arg>
<arg>spd</arg>
</arguments>
<kw name="Set Selenium Speed" library="SeleniumLibrary">
<doc>Sets the delay that is waited after each Selenium command.</doc>
<arguments>
<arg>0.5</arg>
</arguments>
<status status="PASS" endtime="20190709 15:46:46.157" starttime="20190709 15:46:46.157"></status>
</kw>
<kw name="Open Browser" library="SeleniumLibrary">
<doc>Opens a new browser instance to the given ``url``.</doc>
<arguments>
<arg>${LoginPage}</arg>
<arg>gc</arg>
</arguments>
<msg timestamp="20190709 15:46:46.158" level="INFO">Opening browser 'gc' to base url 'http://192.168.2.16:9080/spd/index.jsp?app=indexadmin'.</msg>
<status status="PASS" endtime="20190709 15:46:49.183" starttime="20190709 15:46:46.157"></status>
</kw>
<kw name="Maximize Browser Window" library="SeleniumLibrary">
<doc>Maximizes current browser window.</doc>
<status status="PASS" endtime="20190709 15:46:50.801" starttime="20190709 15:46:49.183"></status>
</kw>
<kw name="Input Text" library="SeleniumLibrary">
<doc>Types the given ``text`` into text field identified by ``locator``.</doc>
<arguments>
<arg>name:userid</arg>
<arg>${user}</arg>
</arguments>
<msg timestamp="20190709 15:46:50.802" level="INFO">Typing text 'user' into text field 'name:userid'.</msg>
<status status="PASS" endtime="20190709 15:46:52.404" starttime="20190709 15:46:50.802"></status>
</kw>
<kw name="Press Keys" library="SeleniumLibrary">
<doc>Simulates user pressing key(s) to an element or on the active browser.</doc>
<arguments>
<arg>name:userid</arg>
<arg>RETURN</arg>
</arguments>
<msg timestamp="20190709 15:46:52.406" level="INFO">Sending key(s) (u'RETURN',) to name:userid element.</msg>
<msg timestamp="20190709 15:46:52.930" level="INFO">Pressing special key RETURN to element.</msg>
<status status="PASS" endtime="20190709 15:46:54.656" starttime="20190709 15:46:52.405"></status>
</kw>
<kw name="Click Button" library="SeleniumLibrary">
<doc>Clicks button identified by ``locator``.</doc>
<arguments>
<arg>ยอมรับ</arg>
</arguments>
<msg timestamp="20190709 15:46:54.656" level="INFO">Clicking button 'ยอมรับ'.</msg>
<status status="PASS" endtime="20190709 15:46:56.222" starttime="20190709 15:46:54.656"></status>
</kw>
<kw name="Wait Until Page Contains Element" library="SeleniumLibrary">
<doc>Waits until element ``locator`` appears on current page.</doc>
<arguments>
<arg>//button[@class="${module}-module"]</arg>
</arguments>
<status status="PASS" endtime="20190709 15:46:56.739" starttime="20190709 15:46:56.222"></status>
</kw>
<kw name="Click Element" library="SeleniumLibrary">
<doc>Click element identified by ``locator``.</doc>
<arguments>
<arg>//button[@class="${module}-module"]</arg>
</arguments>
<msg timestamp="20190709 15:46:56.739" level="INFO">Clicking element '//button[@class="spd-module"]'.</msg>
<status status="PASS" endtime="20190709 15:46:58.006" starttime="20190709 15:46:56.739"></status>
</kw>
<status status="PASS" endtime="20190709 15:46:58.006" starttime="20190709 15:46:46.157"></status>
</kw>
<test id="s1-t1" name="SPD01002A_Validate_Charactor not match with petitionNo_Invalid">
<kw type="setup" name="Go To" library="SeleniumLibrary">
<doc>Navigates the active browser instance to the provided ``url``.</doc>
<arguments>
<arg>${SPD0102}</arg>
</arguments>
<msg timestamp="20190709 15:46:58.007" level="INFO">Opening url 'http://192.168.2.16:9080/spd/spd?app=SPD01002&amp;job=init'</msg>
<status status="PASS" endtime="20190709 15:46:58.640" starttime="20190709 15:46:58.007"></status>
</kw>
<kw name="Comment" library="BuiltIn">
<doc>Displays the given messages in the log file as keyword arguments.</doc>
<arguments>
<arg>ใส่ตัวอักษรในช่องกรอกข้อมูลบัตรประชาชน</arg>
</arguments>
<status status="PASS" endtime="20190709 15:46:58.641" starttime="20190709 15:46:58.641"></status>
</kw>
<kw name="Input Condition for Search">
<arguments>
<arg>${EMPTY}</arg>
<arg>ทดสอบการพิมพ์</arg>
<arg>${EMPTY}</arg>
<arg>${EMPTY}</arg>
<arg>${EMPTY}</arg>
</arguments>
<kw name="Wait Until Page Contains Element" library="SeleniumLibrary">
<doc>Waits until element ``locator`` appears on current page.</doc>
<arguments>
<arg>id:citizenId</arg>
</arguments>
<status status="PASS" endtime="20190709 15:46:59.158" starttime="20190709 15:46:58.641"></status>
</kw>
<kw name="Input Text" library="SeleniumLibrary">
<doc>Types the given ``text`` into text field identified by ``locator``.</doc>
<arguments>
<arg>id:citizenId</arg>
<arg>${citizenId}</arg>
</arguments>
<msg timestamp="20190709 15:46:59.159" level="INFO">Typing text '' into text field 'id:citizenId'.</msg>
<status status="PASS" endtime="20190709 15:47:00.768" starttime="20190709 15:46:59.158"></status>
</kw>
<kw name="Wait Until Page Contains Element" library="SeleniumLibrary">
<doc>Waits until element ``locator`` appears on current page.</doc>
<arguments>
<arg>id:pettitionNo</arg>
</arguments>
<status status="PASS" endtime="20190709 15:47:01.306" starttime="20190709 15:47:00.769"></status>
</kw>
<kw name="Input Text" library="SeleniumLibrary">
<doc>Types the given ``text`` into text field identified by ``locator``.</doc>
<arguments>
<arg>id:pettitionNo</arg>
<arg>${pettitionNo}</arg>
</arguments>
<msg timestamp="20190709 15:47:01.307" level="INFO">Typing text 'ทดสอบการพิมพ์' into text field 'id:pettitionNo'.</msg>
<status status="PASS" endtime="20190709 15:47:02.979" starttime="20190709 15:47:01.307"></status>
</kw>
<kw name="Wait Until Page Contains Element" library="SeleniumLibrary">
<doc>Waits until element ``locator`` appears on current page.</doc>
<arguments>
<arg>id:pettitionStatus</arg>
</arguments>
<status status="PASS" endtime="20190709 15:47:03.500" starttime="20190709 15:47:02.979"></status>
</kw>
<kw name="Select From List By Value" library="SeleniumLibrary">
<doc>Selects options from selection list ``locator`` by ``values``.</doc>
<arguments>
<arg>id:pettitionStatus</arg>
<arg>${pettitionStatus}</arg>
</arguments>
<msg timestamp="20190709 15:47:03.502" level="INFO">Selecting options from selection list 'id:pettitionStatus' by value .</msg>
<status status="PASS" endtime="20190709 15:47:06.618" starttime="20190709 15:47:03.501"></status>
</kw>
<kw name="Wait Until Page Contains Element" library="SeleniumLibrary">
<doc>Waits until element ``locator`` appears on current page.</doc>
<arguments>
<arg>id:pettitionDate</arg>
</arguments>
<status status="PASS" endtime="20190709 15:47:07.153" starttime="20190709 15:47:06.618"></status>
</kw>
<kw name="Input Text" library="SeleniumLibrary">
<doc>Types the given ``text`` into text field identified by ``locator``.</doc>
<arguments>
<arg>id:pettitionDate</arg>
<arg>${pettitionDate}</arg>
</arguments>
<msg timestamp="20190709 15:47:07.154" level="INFO">Typing text '' into text field 'id:pettitionDate'.</msg>
<status status="PASS" endtime="20190709 15:47:08.759" starttime="20190709 15:47:07.154"></status>
</kw>
<kw name="Wait Until Page Contains Element" library="SeleniumLibrary">
<doc>Waits until element ``locator`` appears on current page.</doc>
<arguments>
<arg>id:ssoBranchCode</arg>
</arguments>
<status status="PASS" endtime="20190709 15:47:09.297" starttime="20190709 15:47:08.760"></status>
</kw>
<kw name="Select From List By Value" library="SeleniumLibrary">
<doc>Selects options from selection list ``locator`` by ``values``.</doc>
<arguments>
<arg>id:ssoBranchCode</arg>
<arg>${ssoBranchCode}</arg>
</arguments>
<msg timestamp="20190709 15:47:09.299" level="INFO">Selecting options from selection list 'id:ssoBranchCode' by value .</msg>
<status status="PASS" endtime="20190709 15:47:12.996" starttime="20190709 15:47:09.298"></status>
</kw>
<kw name="Click Element" library="SeleniumLibrary">
<doc>Click element identified by ``locator``.</doc>
<arguments>
<arg>id:search</arg>
</arguments>
<msg timestamp="20190709 15:47:12.996" level="INFO">Clicking element 'id:search'.</msg>
<status status="PASS" endtime="20190709 15:47:14.054" starttime="20190709 15:47:12.996"></status>
</kw>
<status status="PASS" endtime="20190709 15:47:14.054" starttime="20190709 15:46:58.641"></status>
</kw>
<tags>
<tag>Valva4</tag>
</tags>
<status status="PASS" endtime="20190709 15:47:14.055" critical="yes" starttime="20190709 15:46:58.006"></status>
</test>
<status status="PASS" endtime="20190709 15:47:14.057" starttime="20190709 15:46:45.777"></status>
</suite>
<statistics>
<total>
<stat fail="0" pass="1">Critical Tests</stat>
<stat fail="0" pass="1">All Tests</stat>
</total>
<tag>
<stat fail="0" pass="1">Valva4</stat>
</tag>
<suite>
<stat fail="0" id="s1" name="SPD01002 สอบถาม ปรับปรุงการรับแจ้งขอรับสิทธิบำนาญชราภาพ" pass="1">SPD01002 สอบถาม ปรับปรุงการรับแจ้งขอรับสิทธิบำนาญชราภาพ</stat>
</suite>
</statistics>
<errors>
</errors>
</robot>
